<svg xmlns="http://www.w3.org/2000/svg" width="2239.853" height="1166.706" viewBox="0 0 2239.853 1166.706">
  <g id="Group_158" data-name="Group 158" transform="translate(165.853 0.332)">
    <g id="Group_89" data-name="Group 89" transform="translate(-55 2)" opacity="0.7">
      <rect id="Rectangle_633" data-name="Rectangle 633" width="120" height="120" transform="translate(1419.5 17.668) rotate(45)" fill="#ffc405"/>
      <rect id="Rectangle_636" data-name="Rectangle 636" width="120" height="120" transform="translate(1564.5 122.668) rotate(45)" fill="#7b519b"/>
      <rect id="Rectangle_634" data-name="Rectangle 634" width="120" height="120" transform="translate(1524.5 122.668) rotate(45)" fill="#0bb7df"/>
      <rect id="Rectangle_635" data-name="Rectangle 635" width="120" height="120" transform="translate(1649.5 -2.332) rotate(45)" fill="#d32682"/>
    </g>
    <g id="Group_90" data-name="Group 90" transform="translate(-1434 716.476)" opacity="0.5">
      <rect id="Rectangle_633-2" data-name="Rectangle 633" width="184.141" height="184.141" transform="translate(1464.855 28.358) rotate(45)" fill="#ffc405"/>
      <rect id="Rectangle_636-2" data-name="Rectangle 636" width="184.141" height="184.141" transform="translate(1687.359 189.482) rotate(45)" fill="#7b519b"/>
      <rect id="Rectangle_634-2" data-name="Rectangle 634" width="184.141" height="184.141" transform="translate(1625.979 189.482) rotate(45)" fill="#0bb7df"/>
      <rect id="Rectangle_635-2" data-name="Rectangle 635" width="184.141" height="184.141" transform="translate(1817.792 -2.332) rotate(45)" fill="#d32682"/>
    </g>
    <g id="Group_91" data-name="Group 91" transform="translate(-163.521 1822.547) rotate(-90)" opacity="0.4">
      <rect id="Rectangle_633-3" data-name="Rectangle 633" width="134.719" height="134.719" transform="translate(1429.908 20.121) rotate(45)" fill="#ffc405"/>
      <rect id="Rectangle_636-3" data-name="Rectangle 636" width="134.719" height="134.719" transform="translate(1592.693 138) rotate(45)" fill="#7b519b"/>
      <rect id="Rectangle_634-3" data-name="Rectangle 634" width="134.719" height="134.719" transform="translate(1547.786 138) rotate(45)" fill="#0bb7df"/>
      <rect id="Rectangle_635-3" data-name="Rectangle 635" width="134.719" height="134.719" transform="translate(1688.118 -2.332) rotate(45)" fill="#d32682"/>
    </g>
    <g id="Group_92" data-name="Group 92" transform="translate(1617.479 2312.151) rotate(-90)" opacity="0.2">
      <rect id="Rectangle_633-4" data-name="Rectangle 633" width="186.838" height="186.838" transform="translate(1466.762 28.808) rotate(45)" fill="#ffc405"/>
      <rect id="Rectangle_636-4" data-name="Rectangle 636" width="186.838" height="186.838" transform="translate(1692.525 192.291) rotate(45)" fill="#7b519b"/>
      <rect id="Rectangle_634-4" data-name="Rectangle 634" width="186.838" height="186.838" transform="translate(1630.245 192.291) rotate(45)" fill="#0bb7df"/>
      <rect id="Rectangle_635-4" data-name="Rectangle 635" width="186.838" height="186.838" transform="translate(1824.869 -2.332) rotate(45)" fill="#d32682"/>
    </g>
  </g>
</svg>
