<svg xmlns="http://www.w3.org/2000/svg" width="4" height="31" viewBox="0 0 4 31">
  <line id="Line_35" data-name="Line 35" y2="31" transform="translate(2)" fill="none" stroke="#2f2e41" stroke-width="4"/>
</svg>
