<svg xmlns="http://www.w3.org/2000/svg" width="50" height="50.001" viewBox="0 0 50 50.001">
  <g id="resume" transform="translate(-0.007)">
    <g id="Group_128" data-name="Group 128" transform="translate(0.007)">
      <g id="Group_127" data-name="Group 127">
        <path id="Path_567" data-name="Path 567" d="M41.668,14.527a.992.992,0,0,0,1.006-.977V2.93A2.979,2.979,0,0,0,39.656,0H3.026A2.979,2.979,0,0,0,.007,2.93V47.072A2.979,2.979,0,0,0,3.026,50h36.63a2.979,2.979,0,0,0,3.019-2.93V39.877a1.007,1.007,0,0,0-2.013,0v7.195a.993.993,0,0,1-1.006.977H3.026a.993.993,0,0,1-1.006-.977V2.93a.993.993,0,0,1,1.006-.977h36.63a.993.993,0,0,1,1.006.977V13.55A.992.992,0,0,0,41.668,14.527Z" transform="translate(-0.007)" fill="#fff"/>
      </g>
    </g>
    <g id="Group_130" data-name="Group 130" transform="translate(12.69 4.5)">
      <g id="Group_129" data-name="Group 129">
        <path id="Path_568" data-name="Path 568" d="M127.674,54a7.663,7.663,0,0,0-5.26,13.239.824.824,0,0,0,.09.083,7.653,7.653,0,0,0,10.341,0,.832.832,0,0,0,.09-.083A7.663,7.663,0,0,0,127.674,54Zm0,13.667a5.968,5.968,0,0,1-3.624-1.222,4.167,4.167,0,0,1,7.249,0A5.968,5.968,0,0,1,127.674,67.667Zm-1.333-6.334v-.542a1.333,1.333,0,0,1,2.667,0v.542a1.333,1.333,0,0,1-2.667,0Zm6.162,3.89a5.781,5.781,0,0,0-2.455-2.058,2.984,2.984,0,0,0,.627-1.832v-.542a3,3,0,0,0-6,0v.542a2.984,2.984,0,0,0,.627,1.832,5.781,5.781,0,0,0-2.455,2.058,6,6,0,1,1,9.657,0Z" transform="translate(-120.007 -54)" fill="#fff"/>
      </g>
    </g>
    <g id="Group_132" data-name="Group 132" transform="translate(20.223 43.834)">
      <g id="Group_131" data-name="Group 131">
        <path id="Path_569" data-name="Path 569" d="M207.34,438h-4.5a.833.833,0,1,0,0,1.667h4.5a.833.833,0,1,0,0-1.667Z" transform="translate(-202.007 -438)" fill="#fff"/>
      </g>
    </g>
    <g id="Group_134" data-name="Group 134" transform="translate(11.896 37.528)">
      <g id="Group_133" data-name="Group 133">
        <path id="Path_570" data-name="Path 570" d="M126.674,382H114.84a.833.833,0,1,0,0,1.667h11.834a.833.833,0,1,0,0-1.667Z" transform="translate(-114.007 -382)" fill="#fff"/>
      </g>
    </g>
    <g id="Group_136" data-name="Group 136" transform="translate(11.896 32.027)">
      <g id="Group_135" data-name="Group 135">
        <path id="Path_571" data-name="Path 571" d="M126.674,326H114.84a.833.833,0,1,0,0,1.667h11.834a.833.833,0,1,0,0-1.667Z" transform="translate(-114.007 -326)" fill="#fff"/>
      </g>
    </g>
    <g id="Group_138" data-name="Group 138" transform="translate(5.947 26.525)">
      <g id="Group_137" data-name="Group 137">
        <path id="Path_572" data-name="Path 572" d="M72.71,270.244a.833.833,0,1,0,.244.589A.84.84,0,0,0,72.71,270.244Z" transform="translate(-71.287 -270)" fill="#fff"/>
      </g>
    </g>
    <g id="Group_140" data-name="Group 140" transform="translate(5.947 32.027)">
      <g id="Group_139" data-name="Group 139">
        <path id="Path_573" data-name="Path 573" d="M72.71,326.244a.833.833,0,1,0,.244.589A.841.841,0,0,0,72.71,326.244Z" transform="translate(-71.287 -326)" fill="#fff"/>
      </g>
    </g>
    <g id="Group_142" data-name="Group 142" transform="translate(5.947 37.528)">
      <g id="Group_141" data-name="Group 141">
        <path id="Path_574" data-name="Path 574" d="M72.71,382.244a.833.833,0,1,0,.244.589A.841.841,0,0,0,72.71,382.244Z" transform="translate(-71.287 -382)" fill="#fff"/>
      </g>
    </g>
    <g id="Group_144" data-name="Group 144" transform="translate(11.896 26.525)">
      <g id="Group_143" data-name="Group 143">
        <path id="Path_575" data-name="Path 575" d="M126.674,270H114.84a.833.833,0,1,0,0,1.667h11.834a.833.833,0,1,0,0-1.667Z" transform="translate(-114.007 -270)" fill="#fff"/>
      </g>
    </g>
    <g id="Group_146" data-name="Group 146" transform="translate(32.139 17.723)">
      <g id="Group_145" data-name="Group 145">
        <path id="Path_576" data-name="Path 576" d="M313.707,125.146a3.5,3.5,0,0,0-4.781,1.281l-10.487,18.164a.835.835,0,0,0-.106.324l-.738,6.612a.833.833,0,0,0,1.322.764l5.357-3.945a.832.832,0,0,0,.228-.254l10.487-18.164A3.5,3.5,0,0,0,313.707,125.146Zm-14.245,24.674.385-3.453,2.412,1.393Zm4.013-3.283L300.3,144.7l8.416-14.576,3.176,1.833Zm10.07-17.442-.821,1.423-3.176-1.833.821-1.423a1.833,1.833,0,0,1,3.176,1.833Z" transform="translate(-297.589 -124.675)" fill="#fff"/>
      </g>
    </g>
  </g>
</svg>
